Removed Pin From Net: NetName=MAG_INT Pin=U1-9
Removed Pin From Net: NetName=ACC_GYR_DEN Pin=U1-21
Removed Pin From Net: NetName=ACC_GYR_INT1 Pin=U1-23
Removed Pin From Net: NetName=ACC_GYR_INT2 Pin=U1-24
Added Pin To Net: NetName=ACC_GYR_DEN Pin=U1-58
Added Pin To Net: NetName=ACC_GYR_INT2 Pin=U1-59
Added Pin To Net: NetName=ACC_GYR_INT1 Pin=U1-60
Added Pin To Net: NetName=MAG_INT Pin=U1-61
Added Room: Name=ring_v1.1
