Change Physical Footprint: Designator=J1 Old Footprint=USB3100-XX-X_revB New Footprint=USB3100-XX-X_revB
Change Physical Footprint: Designator=J2 Old Footprint=JST_S2B-PH-K-S(LF)(SN) New Footprint=JST_S2B-PH-K-S(LF)(SN)
Change Physical Footprint: Designator=J3 Old Footprint=PROGAMMER New Footprint=PROGAMMER
